{
	"bsonType": "object",
	"required": [],
	"permission": {
		"read": true,
		"create": true,
		"update": true,
		"delete": false,
		"count":true
	},
	"required":["msg"],
	"properties": {
		"_id": {
			"description": "ID，系统自动生成"
		},
		"mag": {
			"description": "内容",
			"bsonType": "string" 
			
		},
		"state":{
			"bsonType": "bool",
			"defaultValue":false,
			"description": "false表示正在进行中，true表示已完成"
		},
		"date":{
			"bsonType": "date"  
		}
	}
}
